{
  "ReRoutes": [
    {
      "DownstreamPathTemplate": "/api/catalog/{everything}",
      "DownstreamScheme": "http",
      "DownstreamHostAndPorts": [
        {
          "Host": "localhost",
          "Port": 14647
        }
      ],
      "UpstreamPathTemplate": "/api/catalog/{everything}"

    },
    {
      "DownstreamPathTemplate": "/api/products{everything}",
      "DownstreamScheme": "http",
      "DownstreamHostAndPorts": [
        {
          "Host": "localhost",
          "Port": 14844
        }
      ],
      "UpstreamPathTemplate": "/api/products{everything}"
      //,
      //"AuthenticationOptions": {
      //  "AuthenticationProviderKey": "IdentityApiKey",
      //  "AllowedScopes": []
      //}
    }

  ],
  "SwaggerEndPoints": [
    {
      "Key": "catalog",
      "Config": [
        {
          "Name": "Contacts API",
          "Version": "v1",
          "Url": "http://localhost:14647/swagger/v1/swagger.json"
        }
      ]
    },
    {
      "Key": "products",
      "Config": [
        //{
        //  "Name": "Orders API",
        //  "Version": "v0.9",
        //  "Url": "http://localhost:5200/swagger/v0.9/swagger.json"
        //},
        {
          "Name": "products API",
          "Version": "v1",
          "Url": "http://localhost:14844/swagger/v1/swagger.json"
        }
        //{
        //  "Name": "Orders API",
        //  "Version": "v2",
        //  "Url": "http://localhost:5200/swagger/v2/swagger.json"
        //},
        //{
        //  "Name": "Orders API",
        //  "Version": "v3",
        //  "Url": "http://localhost:5200/swagger/v3/swagger.json"
        //}
      ]
    }
  ]
  //,
  //"GlobalConfiguration": {
  //  "RequestIdKey": "OcRequestId",
  //  "AdministrationPath": "/administration"
  //}
}